C:\zipperhq-test-automation\src\main\java\com\zyprr\test\testcase\video\Recordvideo.java
C:\zipperhq-test-automation\src\main\java\com\zyprr\test\pageobject\util\Utility.java
C:\zipperhq-test-automation\src\main\java\com\zyprr\test\config\Config.java
C:\zipperhq-test-automation\src\main\java\com\zyprr\test\ZipperHQLoggout.java
C:\zipperhq-test-automation\src\main\java\com\zyprr\test\testcase\templates\RegularTemplate.java
C:\zipperhq-test-automation\src\main\java\com\zyprr\test\base\pageobject\PageIntf.java
C:\zipperhq-test-automation\src\main\java\com\zyprr\test\testcase\video\Editvideo.java
C:\zipperhq-test-automation\src\main\java\com\zyprr\test\Constants.java
C:\zipperhq-test-automation\src\main\java\com\zyprr\test\testcase\admin\EditProfile.java
C:\zipperhq-test-automation\src\main\java\com\zyprr\test\base\pageobject\BasePageObject.java
C:\zipperhq-test-automation\src\main\java\com\zyprr\test\DataProvider.java
C:\zipperhq-test-automation\src\main\java\com\zyprr\test\testcase\recordandsend\CtaEdit.java
C:\zipperhq-test-automation\src\main\java\com\zyprr\test\ZipperHQLoggin.java
C:\zipperhq-test-automation\src\main\java\com\zyprr\test\testcase\recordandsend\SelectAndSend.java
C:\zipperhq-test-automation\src\main\java\com\zyprr\test\pageobject\contact\AddContacts.java
C:\zipperhq-test-automation\src\main\java\com\zyprr\test\testcase\templates\SelectVideoAndSaveQuickSendTemplate.java
C:\zipperhq-test-automation\src\main\java\com\zyprr\test\pageobject\common\trendsHome.java
C:\zipperhq-test-automation\src\main\java\com\zyprr\test\pageobject\common\AdminHome.java
C:\zipperhq-test-automation\src\main\java\com\zyprr\test\base\factory\ZyprrPageFactory.java
C:\zipperhq-test-automation\src\main\java\com\zyprr\test\pageobject\common\ZHQLoggin.java
C:\zipperhq-test-automation\src\main\java\com\zyprr\test\testcase\recordandsend\SelectAndSendToEmail.java
C:\zipperhq-test-automation\src\main\java\com\zyprr\test\testcase\recordandsend\Cta.java
C:\zipperhq-test-automation\src\main\java\com\zyprr\test\testcase\templates\QuickSendTemplate.java
C:\zipperhq-test-automation\src\main\java\com\zyprr\test\testcase\video\Playvideo.java
C:\zipperhq-test-automation\src\main\java\com\zyprr\test\pageobject\common\WaitUtil.java
C:\zipperhq-test-automation\src\main\java\com\zyprr\test\pageobject\util\PopupUtil.java
C:\zipperhq-test-automation\src\main\java\com\zyprr\test\pageobject\common\login1.java
C:\zipperhq-test-automation\src\main\java\com\zyprr\test\testcase\recordandsend\CtaDelete.java
C:\zipperhq-test-automation\src\main\java\com\zyprr\test\testcase\video\Deletevideo.java
C:\zipperhq-test-automation\src\main\java\com\zyprr\test\pageobject\util\WaitUtil.java
C:\zipperhq-test-automation\src\main\java\seleniumWebDriverMvnProject\WebDriverFactory.java
C:\zipperhq-test-automation\src\main\java\com\zyprr\test\testcase\admin\ProfileDetails.java
C:\zipperhq-test-automation\src\main\java\com\zyprr\test\testcase\dashboard\Addnewcontact.java
C:\zipperhq-test-automation\src\main\java\com\zyprr\test\testcase\dashboard\Uploadvideo.java
C:\zipperhq-test-automation\src\main\java\com\zyprr\test\testcase\templates\RecordVideoAndSaveQuickSendTemplate.java
C:\zipperhq-test-automation\src\main\java\com\zyprr\test\testcase\contact\AddContact.java
C:\zipperhq-test-automation\src\main\java\com\zyprr\test\testcase\video\Categoriesvideo.java
C:\zipperhq-test-automation\src\main\java\com\zyprr\test\base\pageobject\BasePopupPageObject.java
C:\zipperhq-test-automation\src\main\java\com\zyprr\test\Test.java
C:\zipperhq-test-automation\src\main\java\com\zyprr\test\testcase\trends\Preview.java
C:\zipperhq-test-automation\src\main\java\com\zyprr\test\testcase\abs\AbstractTest.java
C:\zipperhq-test-automation\src\main\java\com\zyprr\test\testcase\dashboard\Showallcampaigns.java
C:\zipperhq-test-automation\src\main\java\com\zyprr\test\pageobject\common\videoHome.java
C:\zipperhq-test-automation\src\main\java\com\zyprr\test\testcase\templates\CreateTempalte.java
C:\zipperhq-test-automation\src\main\java\com\zyprr\test\testcase\campaigns\CreateNewCampaign.java
C:\zipperhq-test-automation\src\main\java\com\zyprr\test\testcase\dashboard\CreateNew.java
C:\zipperhq-test-automation\src\main\java\com\zyprr\test\testcase\video\Uploadvideo.java
C:\zipperhq-test-automation\src\main\java\com\zyprr\test\pageobject\common\DashboardHome.java
C:\zipperhq-test-automation\src\main\java\com\zyprr\test\testcase\dashboard\Showallcontacts.java
C:\zipperhq-test-automation\src\main\java\com\zyprr\test\testcase\recordandsend\AddTextAndSaveExit.java
C:\zipperhq-test-automation\src\main\java\com\zyprr\test\pageobject\common\ZipperHQHome.java
C:\zipperhq-test-automation\src\main\java\com\zyprr\test\testcase\recordandsend\RecordAndDiscard.java
C:\zipperhq-test-automation\src\main\java\com\zyprr\test\pageobject\common\BaseHome.java
C:\zipperhq-test-automation\src\main\java\com\zyprr\test\testcase\admin\ChangePassword.java
C:\zipperhq-test-automation\src\main\java\com\zyprr\test\testcase\recordandsend\AddTextAndSendToList.java
C:\zipperhq-test-automation\src\main\java\com\zyprr\test\Factory.java
C:\zipperhq-test-automation\src\main\java\com\zyprr\test\pageobject\common\AddNewContact.java
C:\zipperhq-test-automation\src\main\java\com\zyprr\test\testcase\recordandsend\RecordAndSendToList.java
C:\zipperhq-test-automation\src\main\java\com\zyprr\test\testcase\recordandsend\RecordAndSend.java
C:\zipperhq-test-automation\src\main\java\com\zyprr\test\pageobject\common\recordandsendHome.java
C:\zipperhq-test-automation\src\main\java\com\zyprr\test\testcase\templates\SelectVideoAndSaveTemplate.java
C:\zipperhq-test-automation\src\main\java\com\zyprr\test\utility\ZyprrUtilities.java
C:\zipperhq-test-automation\src\main\java\com\zyprr\test\testcase\recordandsend\RecordSaveExit.java
C:\zipperhq-test-automation\src\main\java\com\zyprr\test\testcase\trends\CheckFilter.java
C:\zipperhq-test-automation\src\main\java\com\zyprr\test\testcase\recordandsend\SelectAndSendToList.java
C:\zipperhq-test-automation\src\main\java\com\zyprr\test\pageobject\contact\ContactDetails.java
C:\zipperhq-test-automation\src\main\java\com\zyprr\test\pageobject\contact\ContactsHome.java
C:\zipperhq-test-automation\src\main\java\com\zyprr\test\constants\Constants.java
C:\zipperhq-test-automation\src\main\java\com\zyprr\test\testcase\templates\CheckTemplateFilter.java
C:\zipperhq-test-automation\src\main\java\com\zyprr\test\base\pageobject\BasePhoneyPopupPageObject.java
C:\zipperhq-test-automation\src\main\java\com\zyprr\test\testcase\trends\ContactDetails.java
C:\zipperhq-test-automation\src\main\java\com\zyprr\test\testcase\recordandsend\AddTextAndSendToEMail.java
C:\zipperhq-test-automation\src\main\java\com\zyprr\test\testcase\templates\RecordVideoAndSaveRegularTemplate.java
C:\zipperhq-test-automation\src\main\java\com\zyprr\test\testcase\templates\UploadVideoAndSaveQuickSendTemplate.java
C:\zipperhq-test-automation\src\main\java\com\zyprr\test\utility\ExcelUtility.java
C:\zipperhq-test-automation\src\main\java\com\zyprr\test\testcase\recordandsend\SelectAndSaveExit.java
C:\zipperhq-test-automation\src\main\java\com\zyprr\test\testcase\recordandsend\RecordAndSendToEmail.java
C:\zipperhq-test-automation\src\main\java\com\zyprr\test\testcase\dashboard\Recordvideo.java
C:\zipperhq-test-automation\src\main\java\com\zyprr\test\pageobject\common\templateHome.java
C:\zipperhq-test-automation\src\main\java\com\zyprr\test\testcase\contact\ContactSearch.java
C:\zipperhq-test-automation\src\main\java\com\zyprr\test\testcase\templates\UploadVideoAndSaveRegularTemplate.java
